^X:\DEVELOPMENT\GIT\MANIFOLD2015OCL\TEMPLATE.CPP
/c /ILIB /ILIB\OPENGL /I"LIB\SDL2-2.0.3\INCLUDE" /ILIB\FREEIMAGE /Zi /nologo /W3 /WX- /Od /Oy- /D WIN32 /D _DEBUG /D _WINDOWS /D _CRT_SECURE_NO_DEPRECATE /Gm- /RTC1 /MDd /GS /arch:SSE2 /fp:fast /Zc:wchar_t /Zc:forScope /Zc:inline /Yc"template.h" /Fp"DEBUG\TEMPLATE.PCH" /Fo"DEBUG\\" /Fd"DEBUG\VC140.PDB" /Gd /TP /analyze- X:\DEVELOPMENT\GIT\MANIFOLD2015OCL\TEMPLATE.CPP
^X:\DEVELOPMENT\GIT\MANIFOLD2015OCL\GAME.CPP
/c /ILIB /ILIB\OPENGL /I"LIB\SDL2-2.0.3\INCLUDE" /ILIB\FREEIMAGE /Zi /nologo /W3 /WX- /Od /Oy- /D WIN32 /D _DEBUG /D _WINDOWS /D _CRT_SECURE_NO_DEPRECATE /Gm- /RTC1 /MDd /GS /arch:SSE2 /fp:fast /Zc:wchar_t /Zc:forScope /Zc:inline /Yu"template.h" /Fp"DEBUG\TEMPLATE.PCH" /Fo"DEBUG\\" /Fd"DEBUG\VC140.PDB" /Gd /TP /analyze- X:\DEVELOPMENT\GIT\MANIFOLD2015OCL\GAME.CPP
^X:\DEVELOPMENT\GIT\MANIFOLD2015OCL\GLTOOLS.CPP
/c /ILIB /ILIB\OPENGL /I"LIB\SDL2-2.0.3\INCLUDE" /ILIB\FREEIMAGE /Zi /nologo /W3 /WX- /Od /Oy- /D WIN32 /D _DEBUG /D _WINDOWS /D _CRT_SECURE_NO_DEPRECATE /Gm- /RTC1 /MDd /GS /arch:SSE2 /fp:fast /Zc:wchar_t /Zc:forScope /Zc:inline /Yu"template.h" /Fp"DEBUG\TEMPLATE.PCH" /Fo"DEBUG\\" /Fd"DEBUG\VC140.PDB" /Gd /TP /analyze- X:\DEVELOPMENT\GIT\MANIFOLD2015OCL\GLTOOLS.CPP
^X:\DEVELOPMENT\GIT\MANIFOLD2015OCL\OPENCL.CPP
/c /ILIB /ILIB\OPENGL /I"LIB\SDL2-2.0.3\INCLUDE" /ILIB\FREEIMAGE /Zi /nologo /W3 /WX- /Od /Oy- /D WIN32 /D _DEBUG /D _WINDOWS /D _CRT_SECURE_NO_DEPRECATE /Gm- /RTC1 /MDd /GS /arch:SSE2 /fp:fast /Zc:wchar_t /Zc:forScope /Zc:inline /Yu"template.h" /Fp"DEBUG\TEMPLATE.PCH" /Fo"DEBUG\\" /Fd"DEBUG\VC140.PDB" /Gd /TP /analyze- X:\DEVELOPMENT\GIT\MANIFOLD2015OCL\OPENCL.CPP
^X:\DEVELOPMENT\GIT\MANIFOLD2015OCL\SHADER.CPP
/c /ILIB /ILIB\OPENGL /I"LIB\SDL2-2.0.3\INCLUDE" /ILIB\FREEIMAGE /Zi /nologo /W3 /WX- /Od /Oy- /D WIN32 /D _DEBUG /D _WINDOWS /D _CRT_SECURE_NO_DEPRECATE /Gm- /RTC1 /MDd /GS /arch:SSE2 /fp:fast /Zc:wchar_t /Zc:forScope /Zc:inline /Yu"template.h" /Fp"DEBUG\TEMPLATE.PCH" /Fo"DEBUG\\" /Fd"DEBUG\VC140.PDB" /Gd /TP /analyze- X:\DEVELOPMENT\GIT\MANIFOLD2015OCL\SHADER.CPP
^X:\DEVELOPMENT\GIT\MANIFOLD2015OCL\SURFACE.CPP
/c /ILIB /ILIB\OPENGL /I"LIB\SDL2-2.0.3\INCLUDE" /ILIB\FREEIMAGE /Zi /nologo /W3 /WX- /Od /Oy- /D WIN32 /D _DEBUG /D _WINDOWS /D _CRT_SECURE_NO_DEPRECATE /Gm- /RTC1 /MDd /GS /arch:SSE2 /fp:fast /Zc:wchar_t /Zc:forScope /Zc:inline /Yu"template.h" /Fp"DEBUG\TEMPLATE.PCH" /Fo"DEBUG\\" /Fd"DEBUG\VC140.PDB" /Gd /TP /analyze- X:\DEVELOPMENT\GIT\MANIFOLD2015OCL\SURFACE.CPP
^X:\DEVELOPMENT\GIT\MANIFOLD2015OCL\TEXTURE.CPP
/c /ILIB /ILIB\OPENGL /I"LIB\SDL2-2.0.3\INCLUDE" /ILIB\FREEIMAGE /Zi /nologo /W3 /WX- /Od /Oy- /D WIN32 /D _DEBUG /D _WINDOWS /D _CRT_SECURE_NO_DEPRECATE /Gm- /RTC1 /MDd /GS /arch:SSE2 /fp:fast /Zc:wchar_t /Zc:forScope /Zc:inline /Yu"template.h" /Fp"DEBUG\TEMPLATE.PCH" /Fo"DEBUG\\" /Fd"DEBUG\VC140.PDB" /Gd /TP /analyze- X:\DEVELOPMENT\GIT\MANIFOLD2015OCL\TEXTURE.CPP
^X:\DEVELOPMENT\GIT\MANIFOLD2015OCL\THREADS.CPP
/c /ILIB /ILIB\OPENGL /I"LIB\SDL2-2.0.3\INCLUDE" /ILIB\FREEIMAGE /Zi /nologo /W3 /WX- /Od /Oy- /D WIN32 /D _DEBUG /D _WINDOWS /D _CRT_SECURE_NO_DEPRECATE /Gm- /RTC1 /MDd /GS /arch:SSE2 /fp:fast /Zc:wchar_t /Zc:forScope /Zc:inline /Yu"template.h" /Fp"DEBUG\TEMPLATE.PCH" /Fo"DEBUG\\" /Fd"DEBUG\VC140.PDB" /Gd /TP /analyze- X:\DEVELOPMENT\GIT\MANIFOLD2015OCL\THREADS.CPP
^C:\USERS\DYLAN\DESKTOP\CLASSWORK\INFOMOV\MANIFOLD\MANIFOLD2015\TEMPLATE.CPP
/c /ILIB /ILIB\OPENGL /I"LIB\SDL2-2.0.3\INCLUDE" /ILIB\FREEIMAGE /Zi /nologo /W3 /WX- /Od /Oy- /D WIN32 /D _DEBUG /D _WINDOWS /D _CRT_SECURE_NO_DEPRECATE /Gm- /RTC1 /MDd /GS /arch:SSE2 /fp:fast /Zc:wchar_t /Zc:forScope /Zc:inline /Yc"template.h" /Fp"DEBUG\TEMPLATE.PCH" /Fo"DEBUG\\" /Fd"DEBUG\VC140.PDB" /Gd /TP /analyze- C:\USERS\DYLAN\DESKTOP\CLASSWORK\INFOMOV\MANIFOLD\MANIFOLD2015\TEMPLATE.CPP
^C:\USERS\DYLAN\DESKTOP\CLASSWORK\INFOMOV\MANIFOLD\MANIFOLD2015\GLTOOLS.CPP
/c /ILIB /ILIB\OPENGL /I"LIB\SDL2-2.0.3\INCLUDE" /ILIB\FREEIMAGE /Zi /nologo /W3 /WX- /Od /Oy- /D WIN32 /D _DEBUG /D _WINDOWS /D _CRT_SECURE_NO_DEPRECATE /Gm- /RTC1 /MDd /GS /arch:SSE2 /fp:fast /Zc:wchar_t /Zc:forScope /Zc:inline /Yu"template.h" /Fp"DEBUG\TEMPLATE.PCH" /Fo"DEBUG\\" /Fd"DEBUG\VC140.PDB" /Gd /TP /analyze- C:\USERS\DYLAN\DESKTOP\CLASSWORK\INFOMOV\MANIFOLD\MANIFOLD2015\GLTOOLS.CPP
^C:\USERS\DYLAN\DESKTOP\CLASSWORK\INFOMOV\MANIFOLD\MANIFOLD2015\OPENCL.CPP
/c /ILIB /ILIB\OPENGL /I"LIB\SDL2-2.0.3\INCLUDE" /ILIB\FREEIMAGE /Zi /nologo /W3 /WX- /Od /Oy- /D WIN32 /D _DEBUG /D _WINDOWS /D _CRT_SECURE_NO_DEPRECATE /Gm- /RTC1 /MDd /GS /arch:SSE2 /fp:fast /Zc:wchar_t /Zc:forScope /Zc:inline /Yu"template.h" /Fp"DEBUG\TEMPLATE.PCH" /Fo"DEBUG\\" /Fd"DEBUG\VC140.PDB" /Gd /TP /analyze- C:\USERS\DYLAN\DESKTOP\CLASSWORK\INFOMOV\MANIFOLD\MANIFOLD2015\OPENCL.CPP
^C:\USERS\DYLAN\DESKTOP\CLASSWORK\INFOMOV\MANIFOLD\MANIFOLD2015\SHADER.CPP
/c /ILIB /ILIB\OPENGL /I"LIB\SDL2-2.0.3\INCLUDE" /ILIB\FREEIMAGE /Zi /nologo /W3 /WX- /Od /Oy- /D WIN32 /D _DEBUG /D _WINDOWS /D _CRT_SECURE_NO_DEPRECATE /Gm- /RTC1 /MDd /GS /arch:SSE2 /fp:fast /Zc:wchar_t /Zc:forScope /Zc:inline /Yu"template.h" /Fp"DEBUG\TEMPLATE.PCH" /Fo"DEBUG\\" /Fd"DEBUG\VC140.PDB" /Gd /TP /analyze- C:\USERS\DYLAN\DESKTOP\CLASSWORK\INFOMOV\MANIFOLD\MANIFOLD2015\SHADER.CPP
^C:\USERS\DYLAN\DESKTOP\CLASSWORK\INFOMOV\MANIFOLD\MANIFOLD2015\SURFACE.CPP
/c /ILIB /ILIB\OPENGL /I"LIB\SDL2-2.0.3\INCLUDE" /ILIB\FREEIMAGE /Zi /nologo /W3 /WX- /Od /Oy- /D WIN32 /D _DEBUG /D _WINDOWS /D _CRT_SECURE_NO_DEPRECATE /Gm- /RTC1 /MDd /GS /arch:SSE2 /fp:fast /Zc:wchar_t /Zc:forScope /Zc:inline /Yu"template.h" /Fp"DEBUG\TEMPLATE.PCH" /Fo"DEBUG\\" /Fd"DEBUG\VC140.PDB" /Gd /TP /analyze- C:\USERS\DYLAN\DESKTOP\CLASSWORK\INFOMOV\MANIFOLD\MANIFOLD2015\SURFACE.CPP
^C:\USERS\DYLAN\DESKTOP\CLASSWORK\INFOMOV\MANIFOLD\MANIFOLD2015\TEXTURE.CPP
/c /ILIB /ILIB\OPENGL /I"LIB\SDL2-2.0.3\INCLUDE" /ILIB\FREEIMAGE /Zi /nologo /W3 /WX- /Od /Oy- /D WIN32 /D _DEBUG /D _WINDOWS /D _CRT_SECURE_NO_DEPRECATE /Gm- /RTC1 /MDd /GS /arch:SSE2 /fp:fast /Zc:wchar_t /Zc:forScope /Zc:inline /Yu"template.h" /Fp"DEBUG\TEMPLATE.PCH" /Fo"DEBUG\\" /Fd"DEBUG\VC140.PDB" /Gd /TP /analyze- C:\USERS\DYLAN\DESKTOP\CLASSWORK\INFOMOV\MANIFOLD\MANIFOLD2015\TEXTURE.CPP
^C:\USERS\DYLAN\DESKTOP\CLASSWORK\INFOMOV\MANIFOLD\MANIFOLD2015\THREADS.CPP
/c /ILIB /ILIB\OPENGL /I"LIB\SDL2-2.0.3\INCLUDE" /ILIB\FREEIMAGE /Zi /nologo /W3 /WX- /Od /Oy- /D WIN32 /D _DEBUG /D _WINDOWS /D _CRT_SECURE_NO_DEPRECATE /Gm- /RTC1 /MDd /GS /arch:SSE2 /fp:fast /Zc:wchar_t /Zc:forScope /Zc:inline /Yu"template.h" /Fp"DEBUG\TEMPLATE.PCH" /Fo"DEBUG\\" /Fd"DEBUG\VC140.PDB" /Gd /TP /analyze- C:\USERS\DYLAN\DESKTOP\CLASSWORK\INFOMOV\MANIFOLD\MANIFOLD2015\THREADS.CPP
